<svg id="beenhere-24px" xmlns="http://www.w3.org/2000/svg" width="24" height="24" viewBox="0 0 24 24">
  <path id="パス_109" data-name="パス 109" d="M0,0H24V24H0Z" fill="none"/>
  <path id="パス_110" data-name="パス 110" d="M19,1H5A2,2,0,0,0,3.01,3L3,15.93a2.005,2.005,0,0,0,.88,1.66L12,23l8.11-5.41a2.005,2.005,0,0,0,.88-1.66L21,3A2.006,2.006,0,0,0,19,1ZM10,16,5,11,6.41,9.59,10,13.17l7.59-7.59L19,7Z" fill="#ccc"/>
</svg>
