<?xml version="1.0" encoding="UTF-8"?>
<svg width="46px" height="46px" viewBox="0 0 46 46" version="1.1" xmlns="http://www.w3.org/2000/svg" xmlns:xlink="http://www.w3.org/1999/xlink">
    <!-- Generator: Sketch 58 (84663) - https://sketch.com -->
    <title>userバックアップ</title>
    <desc>Created with Sketch.</desc>
    <g id="画面-1" stroke="none" stroke-width="1" fill="none" fill-rule="evenodd">
        <g id="userバックアップ" fill-rule="nonzero">
            <circle id="Oval" fill="#000000" cx="23" cy="23" r="23"></circle>
            <g id="ユーザ" transform="translate(10.000000, 9.000000)" fill="#FFFFFF">
                <path d="M13,14.5858487 C16.7325395,14.5858487 19.76,11.3204564 19.76,7.29468004 C19.76,3.26890367 16.7324947,0.0258486543 13,0.0258486543 C9.26750529,0.0258486543 6.24,3.29124089 6.24,7.29468004 C6.24,11.2981192 9.26746046,14.5858487 13,14.5858487 Z M13,1.84584865 C15.7265088,1.84584865 17.9573333,4.30283759 17.9573333,7.30587324 C17.9573333,10.3089089 15.7265088,12.7658487 13,12.7658487 C10.2734912,12.7658487 8.04266667,10.3088597 8.04266667,7.30582406 C8.04266667,4.30278841 10.2734466,1.84584865 13,1.84584865 Z" id="Shape"></path>
                <path d="M0.917888646,24.9867676 L25.0821114,24.9867676 C25.5944234,24.9867676 26,24.5933225 26,24.0963345 C26,19.4370386 22.0936088,15.6267676 17.2692828,15.6267676 L8.73071721,15.6267676 C3.92775678,15.6267676 0,19.4163121 0,24.0963345 C0,24.5933225 0.405576558,24.9867676 0.917888646,24.9867676 Z M8.68966951,17.3285858 L17.3103305,17.3285858 C20.8448043,17.3285858 23.7542785,19.9238834 24.2068966,23.2849494 L1.79310345,23.2849494 C2.24567487,19.9451752 5.15519571,17.3285858 8.68966951,17.3285858 Z" id="Shape"></path>
            </g>
        </g>
    </g>
</svg>