{
  "OFFLINE":[
    "/login",
    "/photo-list",
    "/draw-display",
    "/camera",
    "/barcode-scan",
    "/photo-detail"
  ],
  "ONLINE":[
    "/change-pwd",
    "/device-manage",
    "/lock-account",
    "/buildinglist",
    "/project",
    "/bigProcess",
    "/draw-location",
    "/process-create",
    "/process-edit",
    "/photobook-info-set",
    "/photobook-view-set",
    "/photobook-preview",
    "/chatroomlist",
    "/chatroom-create",
    "/chatroom-create-user-select",
    "/chatroom-create-complete",
    "/chatroom-edit",
    "/chatroom-edit-user-select",
    "/chatroom-edit-complete",
    "/chattalk",
    "/error/:errorStatus",
    "/privacy-policy",
    "/presetting-login",
    "/presetting-upload",
    "/presetting-confirm"
  ]
}
